…
``` r
cancer_data %>% 
  select(target_death_rate,geography) %>% 
  arrange(desc(target_death_rate)) %>% 
  separate(geography, c("county", "state"), sep = ",") %>% 
  group_by(state) %>% 
  mutate(state_death = mean(target_death_rate)) %>% 
  distinct(state,state_death) %>% 
  arrange(desc(state_death)) 
```

    ## # A tibble: 51 x 2
    ## # Groups:   state [51]
    ##    state            state_death
    ##    <chr>                  <dbl>
    ##  1 " Kentucky"             215.
    ##  2 " Mississippi"          203.
    ##  3 " Tennessee"            201.
    ##  4 " Arkansas"             200.
    ##  5 " Louisiana"            198.
    ##  6 " West Virginia"        197.
    ##  7 " Oklahoma"             194.
    ##  8 " Alaska"               193.
    ##  9 " Alabama"              193.
    ## 10 " Missouri"             190.
    ## # ... with 41 more rows
…
